<svg width="48" height="40" viewBox="0 0 48 40" fill="none" xmlns="http://www.w3.org/2000/svg">
<path d="M43.8047 22.6594L40.5864 31.2912H36.8182L33.5233 22.6594L43.8047 22.6594Z" fill="#00AF7E"/>
<path d="M43.8045 9.71167L40.5862 18.3434H25.1223L21.9004 9.71167H43.8045Z" fill="#00AF7E"/>
<path d="M41.7211 39.9228L33.1754 39.9191L25.1224 18.3434L21.9004 9.71165L18.6821 18.3434L10.6255 39.9228H2.07617L10.308 18.3434L13.6029 9.71165L17.3065 0H26.4944L30.2016 9.71165L33.4929 18.3434L41.7211 39.9228Z" fill="white"/>
<path d="M21.9005 9.71167L18.6822 18.3434H3.22195L0 9.71167H21.9005Z" fill="#00AF7E"/>
<path d="M26.7316 22.6594L29.9535 31.2912H3.22195L0 22.6594H26.7316Z" fill="#00AF7E"/>
<path d="M45.8981 39.9999C45.3034 39.9999 44.8071 39.7979 44.3984 39.3902C43.9934 38.9788 43.7927 38.4793 43.7927 37.8879C43.7927 37.2965 43.9934 36.797 44.3984 36.3893C44.8071 35.9779 45.3034 35.7759 45.8981 35.7759C46.4929 35.7759 46.9891 35.9779 47.3905 36.3893C47.7992 36.797 47.9999 37.2929 47.9999 37.8879C47.9999 38.4793 47.7992 38.9788 47.3905 39.3902C46.9891 39.7979 46.4929 39.9999 45.8981 39.9999ZM47.1643 39.1772C47.5073 38.8245 47.6751 38.3985 47.6751 37.8879C47.6751 37.3773 47.5073 36.9513 47.1643 36.6023C46.8213 36.2497 46.4017 36.0771 45.8981 36.0771C45.4019 36.0771 44.9786 36.2534 44.632 36.6023C44.289 36.9476 44.1211 37.3773 44.1211 37.8879C44.1211 38.3985 44.289 38.8245 44.632 39.1772C44.975 39.5224 45.4019 39.6987 45.8981 39.6987C46.4017 39.6987 46.8213 39.5224 47.1643 39.1772ZM46.9563 38.2222C46.7994 38.7033 46.4382 39.0082 45.9529 39.0082C45.6354 39.0082 45.38 38.898 45.1829 38.685C44.9932 38.4719 44.8947 38.1928 44.8947 37.8548C44.8947 37.5426 44.9969 37.2782 45.2012 37.0688C45.4092 36.8558 45.6573 36.7492 45.9529 36.7492C46.1973 36.7492 46.409 36.8264 46.5951 36.9733C46.7811 37.1202 46.9016 37.3076 46.9599 37.5316L46.544 37.6859C46.4783 37.3333 46.2557 37.1276 45.9492 37.1276C45.5843 37.1276 45.3325 37.4251 45.3325 37.8806C45.3325 38.3177 45.5843 38.6262 45.9492 38.6262C46.2776 38.6262 46.471 38.4389 46.544 38.0679L46.9563 38.2222Z" fill="white"/>
</svg>
