<svg width="32" height="27" viewBox="0 0 32 27" fill="none" xmlns="http://www.w3.org/2000/svg">
<path fill-rule="evenodd" clip-rule="evenodd" d="M32 8.9742L29.903 13.8771H23.6032L21.5241 8.9742H32ZM24.0806 16.4123H31.0118L28.6072 21.3152H26.4655L24.0806 16.4123ZM20.3786 16.4123H1.73181L3.95844 21.3441H22.5137L20.3786 16.4123ZM2.19384 13.958L0 9.05506H16.2141L14.1095 13.958H2.19384Z" fill="#00AF7E"/>
<path fill-rule="evenodd" clip-rule="evenodd" d="M9.8594 9.07346L13.8004 0H18.415L30.1271 26.9661H23.7338L16.2108 9.07346H9.8594ZM14.071 13.9681H8.3059L7.31516 16.4196H13.1154L14.071 13.9681ZM4.89601 21.3702L2.22662 27H8.59608L11.176 21.3702H4.89601Z" fill="white"/>
</svg>
