<svg width="16" height="16" viewBox="0 0 16 16" fill="none" xmlns="http://www.w3.org/2000/svg">
<path fill-rule="evenodd" clip-rule="evenodd" d="M0.845214 15.184C0.281307 15.184 -0.155201 14.6438 0.0527323 14.1197C1.31838 10.9292 4.4013 8.67654 8.0036 8.67654C11.5966 8.67654 14.6729 10.9176 15.9446 14.095C16.1576 14.6271 15.7268 15.184 15.1536 15.184H0.845214ZM8.0036 8.67655C5.63833 8.67655 3.7209 6.73424 3.7209 4.33827C3.7209 1.94231 5.63833 0 8.0036 0C10.3689 0 12.2863 1.94231 12.2863 4.33827C12.2863 6.73424 10.3689 8.67655 8.0036 8.67655Z" fill="#1F5263"/>
</svg>
